Project/output/vhdl/trace.vcd
$date
  Mon May 27 11:25:29 2024
$end
$version
  GHDL v0
$end
$timescale
  1 fs
$end
$scope module standard $end
$upscope $end
$scope module std_logic_1164 $end
$upscope $end
$scope module numeric_std $end
$upscope $end
$scope module textio $end
$upscope $end
$scope module std_logic_textio $end
$upscope $end
$scope module system_types $end
$upscope $end
$scope module custom_types $end
$upscope $end
$scope module csv_util $end
$upscope $end
$scope module sme_intro_tb $end
$var reg 1 ! clock $end
$var reg 1 " stopclock $end
$var reg 1 # reset $end
$var reg 1 $ enable $end
$comment control_array is not handled $end
$var reg 32 % control_length[31:0] $end
$var reg 1 & control_reset $end
$var reg 1 ' control_valid $end
$var reg 1 ( traversal_valid $end
$scope module uut $end
$var reg 1 ) control_valid $end
$var reg 1 * control_reset $end
$var reg 32 + control_length[31:0] $end
$comment control_array is not handled $end
$var reg 1 , traversal_valid $end
$var reg 1 - enb $end
$var reg 1 . fin $end
$var reg 1 / rst $end
$var reg 1 0 clk $end
$var reg 1 1 fin_traverse $end
$var reg 1 2 rdy $end
$scope module traverse $end
$var reg 1 3 control_valid $end
$var reg 1 4 control_reset $end
$var reg 32 5 control_length[31:0] $end
$comment control_array is not handled $end
$var reg 1 6 traversal_valid $end
$var reg 1 7 clk $end
$var reg 1 8 rdy $end
$var reg 1 9 fin $end
$var reg 1 : enb $end
$var reg 1 ; rst $end
$upscope $end
$upscope $end
$upscope $end
$enddefinitions $end
#0
1!
0"
1#
0$
bUUUUUUUUUUUUUUUUUUUUUUUUUUUUUUUU %
U&
U'
0(
U)
U*
bUUUUUUUUUUUUUUUUUUUUUUUUUUUUUUUU +
0,
0-
0.
1/
10
01
02
U3
U4
bUUUUUUUUUUUUUUUUUUUUUUUUUUUUUUUU 5
06
17
08
09
0:
1;
#5000000
0!
0#
1$
b00000000000000000000000000000000 %
0&
0'
0)
0*
b00000000000000000000000000000000 +
1-
0/
00
03
04
b00000000000000000000000000000000 5
07
1:
0;
#10000000
1!
b00000000000000000000000000000001 %
1'
1)
b00000000000000000000000000000001 +
1.
10
11
12
13
b00000000000000000000000000000001 5
17
18
19
#15000000
0!
00
07
#20000000
1!
0.
10
01
02
17
08
09
#25000000
0!
00
07
#30000000
1!
1&
0'
0)
1*
1.
10
11
12
03
14
17
18
19
#35000000
0!
00
07
#40000000
1!
0&
1'
1)
0*
0.
10
01
02
13
04
17
08
09
#45000000
0!
00
07
#50000000
1!
1.
10
11
12
17
18
19
#55000000
0!
00
07
#60000000
1!
1&
0'
0)
1*
0.
10
01
02
03
14
17
08
09
#65000000
0!
00
07
#70000000
1!
b00000000000000000000000000000010 %
0&
1'
1)
0*
b00000000000000000000000000000010 +
1.
10
11
12
13
04
b00000000000000000000000000000010 5
17
18
19
#75000000
0!
00
07
#80000000
1!
1(
1,
0.
10
01
02
16
17
08
09
#85000000
0!
00
07
#90000000
1!
1.
10
11
12
17
18
19
#95000000
0!
00
07
#100000000
1!
1&
0'
0)
1*
0.
10
01
02
03
14
17
08
09
#105000000
0!
00
07
#110000000
1!
b00000000000000000000000000000001 %
0&
1'
0(
1)
0*
b00000000000000000000000000000001 +
0,
1.
10
11
12
13
04
b00000000000000000000000000000001 5
06
17
18
19
#115000000
0!
00
07
#120000000
1!
1(
1,
0.
10
01
02
16
17
08
09
#125000000
0!
00
07
#130000000
1!
1&
0'
0)
1*
1.
10
11
12
03
14
17
18
19
#135000000
0!
00
07
#140000000
1!
b00000000000000000000000000000010 %
0&
1'
0(
1)
0*
b00000000000000000000000000000010 +
0,
0.
10
01
02
13
04
b00000000000000000000000000000010 5
06
17
08
09
#145000000
0!
00
07
#150000000
1!
1(
1,
1.
10
11
12
16
17
18
19
#155000000
0!
00
07
#160000000
1!
0.
10
01
02
17
08
09
#165000000
0!
00
07
#170000000
1!
1&
0'
0)
1*
1.
10
11
12
03
14
17
18
19
#175000000
0!
00
07
#180000000
1!
0&
1'
0(
1)
0*
0,
0.
10
01
02
13
04
06
17
08
09
#185000000
0!
00
07
#190000000
1!
1.
10
11
12
17
18
19
#195000000
0!
00
07
#200000000
1!
0.
10
01
02
17
08
09
#205000000
0!
00
07
#210000000
1!
1&
0'
0)
1*
1.
10
11
12
03
14
17
18
19
#215000000
0!
00
07
#220000000
1!
0&
1'
1)
0*
0.
10
01
02
13
04
17
08
09
#225000000
0!
00
07
#230000000
1!
1.
10
11
12
17
18
19
#235000000
0!
00
07
#240000000
1!
0.
10
01
02
17
08
09
#245000000
0!
00
07
#250000000
1!
1&
0'
0)
1*
1.
10
11
12
03
14
17
18
19
#255000000
0!
00
07
#260000000
1!
0&
1'
1)
0*
0.
10
01
02
13
04
17
08
09
#265000000
0!
00
07
#270000000
1!
1.
10
11
12
17
18
19
#275000000
0!
00
07
#280000000
1!
0.
10
01
02
17
08
09
#285000000
0!
00
07
#290000000
1!
1&
0'
0)
1*
1.
10
11
12
03
14
17
18
19
#295000000
0!
00
07
#300000000
1!
b00000000000000000000000000000001 %
0&
1'
1)
0*
b00000000000000000000000000000001 +
0.
10
01
02
13
04
b00000000000000000000000000000001 5
17
08
09
#305000000
0!
00
07
#310000000
1!
1.
10
11
12
17
18
19
#315000000
0!
00
07
#320000000
1!
1&
0'
0)
1*
0.
10
01
02
03
14
17
08
09
#325000000
0!
00
07
#330000000
1!
b00000000000000000000000000001000 %
0&
1'
1)
0*
b00000000000000000000000000001000 +
1.
10
11
12
13
04
b00000000000000000000000000001000 5
17
18
19
#335000000
0!
00
07
#340000000
1!
1(
1,
0.
10
01
02
16
17
08
09
#345000000
0!
00
07
#350000000
1!
1.
10
11
12
17
18
19
#355000000
0!
00
07
#360000000
1!
0.
10
01
02
17
08
09
#365000000
0!
00
07
#370000000
1!
1.
10
11
12
17
18
19
#375000000
0!
00
07
#380000000
1!
0.
10
01
02
17
08
09
#385000000
0!
00
07
#390000000
1!
1.
10
11
12
17
18
19
#395000000
0!
00
07
#400000000
1!
0.
10
01
02
17
08
09
#405000000
0!
00
07
#410000000
1!
1.
10
11
12
17
18
19
#415000000
0!
00
07
#420000000
1!
1&
0'
0)
1*
0.
10
01
02
03
14
17
08
09
#425000000
0!
00
07
#430000000
1!
b00000000000000000000000000000100 %
0&
1'
0(
1)
0*
b00000000000000000000000000000100 +
0,
1.
10
11
12
13
04
b00000000000000000000000000000100 5
06
17
18
19
#435000000
0!
00
07
#440000000
1!
1(
1,
0.
10
01
02
16
17
08
09
#445000000
0!
00
07
#450000000
1!
1.
10
11
12
17
18
19
#455000000
0!
00
07
#460000000
1!
0.
10
01
02
17
08
09
#465000000
0!
00
07
#470000000
1!
1.
10
11
12
17
18
19
#475000000
0!
00
07
#480000000
1!
1&
0'
0)
1*
0.
10
01
02
03
14
17
08
09
#485000000
0!
00
07
#490000000
1!
0&
1'
0(
1)
0*
0,
1.
10
11
12
13
04
06
17
18
19
#495000000
0!
00
07
#500000000
1!
1(
1,
0.
10
01
02
16
17
08
09
#505000000
0!
00
07
#510000000
1!
1.
10
11
12
17
18
19
#515000000
0!
00
07
#520000000
1!
0.
10
01
02
17
08
09
#525000000
0!
00
07
#530000000
1!
1.
10
11
12
17
18
19
#535000000
0!
00
07
#540000000
1!
1&
0'
0)
1*
0.
10
01
02
03
14
17
08
09
#545000000
0!
00
07
#550000000
1!
b00000000000000000000000000000110 %
0&
1'
0(
1)
0*
b00000000000000000000000000000110 +
0,
1.
10
11
12
13
04
b00000000000000000000000000000110 5
06
17
18
19
#555000000
0!
00
07
#560000000
1!
1(
1,
0.
10
01
02
16
17
08
09
#565000000
0!
00
07
#570000000
1!
1.
10
11
12
17
18
19
#575000000
0!
00
07
#580000000
1!
0.
10
01
02
17
08
09
#585000000
0!
00
07
#590000000
1!
1.
10
11
12
17
18
19
#595000000
0!
00
07
#600000000
1!
0.
10
01
02
17
08
09
#605000000
0!
00
07
#610000000
1!
1.
10
11
12
17
18
19
#615000000
0!
00
07
#620000000
1!
1&
0'
0)
1*
0.
10
01
02
03
14
17
08
09
#625000000
0!
00
07
#630000000
1!
b00000000000000000000000000000100 %
0&
1'
0(
1)
0*
b00000000000000000000000000000100 +
0,
1.
10
11
12
13
04
b00000000000000000000000000000100 5
06
17
18
19
#635000000
0!
00
07
#640000000
1!
0.
10
01
02
17
08
09
#645000000
0!
00
07
#650000000
1!
1.
10
11
12
17
18
19
#655000000
0!
00
07
#660000000
1!
0.
10
01
02
17
08
09
#665000000
0!
00
07
#670000000
1!
1.
10
11
12
17
18
19
#675000000
0!
00
07
#680000000
1!
1&
0'
0)
1*
0.
10
01
02
03
14
17
08
09
#685000000
0!
00
07
#690000000
1!
0&
1'
1)
0*
1.
10
11
12
13
04
17
18
19
#695000000
0!
00
07
#700000000
1!
0.
10
01
02
17
08
09
#705000000
0!
00
07
#710000000
1!
1.
10
11
12
17
18
19
#715000000
0!
00
07
#720000000
1!
0.
10
01
02
17
08
09
#725000000
0!
00
07
#730000000
1!
1.
10
11
12
17
18
19
#735000000
0!
00
07
#740000000
1!
1&
0'
0)
1*
0.
10
01
02
03
14
17
08
09
#745000000
0!
00
07
#750000000
1!
0&
1'
1)
0*
1.
10
11
12
13
04
17
18
19
#755000000
0!
00
07
#760000000
1!
0.
10
01
02
17
08
09
#765000000
0!
00
07
#770000000
1!
1.
10
11
12
17
18
19
#775000000
0!
00
07
#780000000
1!
0.
10
01
02
17
08
09
#785000000
0!
00
07
#790000000
1!
1.
10
11
12
17
18
19
#795000000
0!
00
07
#800000000
1!
1&
0'
0)
1*
0.
10
01
02
03
14
17
08
09
#805000000
0!
00
07
#810000000
1!
b00000000000000000000000000000110 %
0&
1'
1)
0*
b00000000000000000000000000000110 +
1.
10
11
12
13
04
b00000000000000000000000000000110 5
17
18
19
#815000000
0!
00
07
#820000000
1!
1(
1,
0.
10
01
02
16
17
08
09
#825000000
0!
00
07
#830000000
1!
1.
10
11
12
17
18
19
#835000000
0!
00
07
#840000000
1!
0.
10
01
02
17
08
09
#845000000
0!
00
07
#850000000
1!
1.
10
11
12
17
18
19
#855000000
0!
00
07
#860000000
1!
0.
10
01
02
17
08
09
#865000000
0!
00
07
#870000000
1!
1.
10
11
12
17
18
19
#875000000
0!
00
07
#880000000
1!
1&
0'
0)
1*
0.
10
01
02
03
14
17
08
09
#885000000
0!
00
07
#890000000
1!
b00000000000000000000000000000111 %
0&
1'
0(
1)
0*
b00000000000000000000000000000111 +
0,
1.
10
11
12
13
04
b00000000000000000000000000000111 5
06
17
18
19
#895000000
0!
00
07
#900000000
1!
1(
1,
0.
10
01
02
16
17
08
09
#905000000
0!
00
07
#910000000
1!
1.
10
11
12
17
18
19
#915000000
0!
00
07
#920000000
1!
0.
10
01
02
17
08
09
#925000000
0!
00
07
#930000000
1!
1.
10
11
12
17
18
19
#935000000
0!
00
07
#940000000
1!
0.
10
01
02
17
08
09
#945000000
0!
00
07
#950000000
1!
1.
10
11
12
17
18
19
#955000000
0!
00
07
#960000000
1!
0.
10
01
02
17
08
09
#965000000
0!
00
07
#970000000
1!
1&
0'
0)
1*
1.
10
11
12
03
14
17
18
19
#975000000
0!
00
07
#980000000
1!
0(
0,
0.
10
01
02
06
17
08
09
#985000000
0!
00
07
#990000000
1!
1.
10
11
12
17
18
19
